{
  "data": [
    {
      "checkbookId": "000324",
      "checkbookType":{
        "id":"PROMISSORY_NOTE",
        "name":"Promissory note"
      },
      "format":{
        "id":"CONTINUOUS_PAPER",
        "name":"Continuous paper"
      },
      "requestDate": "2014-03-09",
      "deliveryDate": "2014-03-12",
      "status":{
        "id":"REQUEST_PROCESSED",
        "name":"Processed request"
      },
      "firstCheckId": "0001",
      "lastCheckId": "0100"
    }
  ],
  "pagination": {
    "links": {
      "first": "https://www.bbvaapis.com/accounts/v0/accounts/1234/checkbooks",
      "last": "https://www.bbvaapis.com/accounts/v0/accounts/1234/checkbooks?paginationKey=gdfw254sf",
      "previous": "https://www.bbvaapis.com/accounts/v0/accounts/1234/checkbooks?paginationKey=dwer342sf",
      "next": "https://www.bbvaapis.com/accounts/v0/accounts/1234/checkbooks?paginationKey=qazx687sf"
    },
    "page": 1,
    "totalPages": 6,
    "totalElements": 6,
    "pageSize": 1
  }
}
