{
  "data": [
    {
      "indicatorId":"ORIGIN_TRANSFER_TO_ACCOUNT",
      "name": "The account can be the origin of a transfer.",
      "isActive": true
    },
    {
      "indicatorId":"DESTINATION_TRANSFER_FROM_ACCOUNT",
      "name": "The account can be the destination of a transfer.",
      "isActive": false
    },
    {
      "indicatorId":"ORIGIN_INTERNAL_TRANSFER_TO_ACCOUNT",
      "name": "The account can be the origin of a transfer between user's internal accounts.",
      "isActive": true
    },
    {
      "indicatorId":"ORIGIN_TRANSFER_TO_CARD",
      "name": "The account can be the origin of a transfer to a debit or credit card.",
      "isActive": true
    },
    {
      "indicatorId":"DESTINATION_TRANSFER_FROM_CARD",
      "name": "The account can be the destination of a transfer from a debit or credit card.",
      "isActive": true
    }
  ],
  "pagination": {
    "links": {
      "first": "https://www.bbvaapis.com/accounts/v0/accounts/1234/indicators",
      "last": "https://www.bbvaapis.com/accounts/v0/accounts/1234/indicators?paginationKey=gdfw254sf",
      "previous": "https://www.bbvaapis.com/accounts/v0/accounts/1234/indicators?paginationKey=dwer342sf",
      "next": "https://www.bbvaapis.com/accounts/v0/accounts/1234/indicators?paginationKey=qazx687sf"
    },
    "page": 1,
    "totalPages": 3,
    "totalElements": 15,
    "pageSize": 6
  }
}
